{
  "schemaVersion": 1,
  "id": "EXAMPLE_MOD",
  "version": "${version}",

  "name": "EXAMPLE_MOD",
  "description": "EXAMPLE_MOD",
  "authors": [
    "Biom4st3r"
  ],
  "contact": {
    "homepage": "https://gitlab.com/biom4st3r",
    "sources": "https://gitlab.com/biom4st3r"
  },

  "license": "CC0-1.0",
  "icon": "assets/modid/icon.png",

  "environment": "*",
  "entrypoints": {
    "main": [
      "biom4st3r.mods.example_mod.ModInit"
    ],
    "client": [
      "biom4st3r.mods.example_mod.ModInitClient"
    ]
  },
  "mixins": [
    "EXAMPLE_MOD.mixins.json"
  ],

  "depends": {
    "fabricloader": ">=0.4.0",
    "fabric": "*"
  },
  "suggests": {
    "flamingo": "*"
  }
}
